<?xml version="1.0" encoding="UTF-8" standalone="no"?>
<svg
   xmlns:dc="http://purl.org/dc/elements/1.1/"
   xmlns:cc="http://creativecommons.org/ns#"
   xmlns:rdf="http://www.w3.org/1999/02/22-rdf-syntax-ns#"
   xmlns:svg="http://www.w3.org/2000/svg"
   xmlns="http://www.w3.org/2000/svg"
   xmlns:sodipodi="http://sodipodi.sourceforge.net/DTD/sodipodi-0.dtd"
   xmlns:inkscape="http://www.inkscape.org/namespaces/inkscape"
   width="210mm"
   height="297mm"
   viewBox="0 0 210 297"
   version="1.1"
   id="svg8"
   inkscape:version="1.0.1 (3bc2e813f5, 2020-09-07)"
   sodipodi:docname="dices.svg">
  <defs
     id="defs2" />
  <sodipodi:namedview
     id="base"
     pagecolor="#ffffff"
     bordercolor="#666666"
     borderopacity="1.0"
     inkscape:pageopacity="0.0"
     inkscape:pageshadow="2"
     inkscape:zoom="0.62634618"
     inkscape:cx="615.77095"
     inkscape:cy="278.12525"
     inkscape:document-units="mm"
     inkscape:current-layer="layer1"
     inkscape:document-rotation="0"
     showgrid="false"
     inkscape:window-width="1755"
     inkscape:window-height="1024"
     inkscape:window-x="143"
     inkscape:window-y="0"
     inkscape:window-maximized="0" />
  <metadata
     id="metadata5">
    <rdf:RDF>
      <cc:Work
         rdf:about="">
        <dc:format>image/svg+xml</dc:format>
        <dc:type
           rdf:resource="http://purl.org/dc/dcmitype/StillImage" />
        <dc:title></dc:title>
      </cc:Work>
    </rdf:RDF>
  </metadata>
  <g
     inkscape:label="Layer 1"
     inkscape:groupmode="layer"
     id="layer1">
    <path
       style="fill:#000000;stroke-width:0.264583"
       d="m 26.840017,44.751995 h -0.088 l -1.03981,-0.88851 -1.03981,-0.8885 -6.75328,-5.65993 -6.75327,-5.65994 -1.89125,-1.5875 -1.89124,-1.5875 -0.0142,-0.26458 -0.0142,-0.26458 4.13106,-4.63021 4.13106,-4.63021 5.56213,-6.29182 5.56214,-6.2918102 0.17407,0.0741 0.17406,0.0741 2.88309,3.3073 2.88308,3.3072902 3.19132,3.57187 3.19133,3.57188 3.4327,3.92941 3.4327,3.92942 0.0853,0.22905 0.0853,0.22904 -0.87904,0.77066 -0.87903,0.77065 -5.42396,4.59623 -5.42396,4.59623 -3.37008,2.84392 -3.37008,2.84393 h -0.088 z m -0.64629,-1.87486 0.19844,0.0228 -0.008,-17.39635 -0.008,-17.3963502 -0.82668,0.92604 -0.82668,0.92604 -1.76774,1.9843702 -1.76773,1.98438 -2.10966,2.38125 -2.10967,2.38125 -4.19755,4.74425 -4.19755,4.74424 0.77345,0.59952 0.77345,0.59952 7.9375,6.73816 7.9375,6.73815 0.19844,0.0228 z m 1.71979,-0.29611 0.46302,-0.4009 8.0698,-6.82377 8.06979,-6.82376 0.21887,-0.1922 0.21888,-0.1922 -5.77513,-6.59105 -5.77512,-6.59104 -2.71582,-3.08548 -2.71581,-3.0854702 -0.26075,-0.16116 -0.26075,-0.16115 v 17.2545402 17.25454 z m 204.020373,3.993897 -0.33665,-0.0246 -5.87875,-1.49675 -5.87875,-1.49674 -3.38167,-3.15725 -3.38166,-3.15724 -0.41668,-1.60526 -0.41667,-1.60525 -0.89637,-4.38957 -0.89637,-4.38957 2.76825,-4.29713 2.76825,-4.29714 4.97669,-3.28569 4.97668,-3.28569 0.44727,0.008 0.44728,0.008 5.19996,1.1435 5.19996,1.1435 0.75316,0.59182 0.75317,0.59183 2.83692,2.76575 2.83693,2.76576 1.35522,5.66409 1.35523,5.66408 -2.32224,4.28836 -2.32225,4.28835 -5.10513,3.79492 -5.10513,3.79492 z m -0.23719,-1.05778 0.36404,0.0241 4.60928,-3.48917 4.60927,-3.48917 -2.98894,-3.05048 -2.98895,-3.05048 -0.0587,-0.11155 -0.0587,-0.11155 -5.62032,1.50432 -5.62032,1.50432 -0.0269,0.0537 -0.0269,0.0537 -1.37213,3.43959 -1.37214,3.43958 5.3e-4,0.32569 5.3e-4,0.32569 0.7276,0.18402 0.72761,0.18403 4.36562,1.11988 4.36563,1.11988 0.36404,0.024 z m -11.83196,-3.42882 0.17374,0.0133 0.79581,-1.91823 0.7958,-1.91823 0.69708,-1.74809 0.69708,-1.74809 -3.25413,-4.69687 -3.25413,-4.69687 -2.38125,0.18514 -2.38125,0.18515 -0.11555,0.11356 -0.11555,0.11356 1.11061,5.22021 1.11061,5.22022 2.97369,2.83098 2.97369,2.83099 0.17375,0.0133 z m 22.19555,-4.62435 0.18083,-0.11175 1.88795,-3.44195 1.88796,-3.44195 v -0.37258 -0.37258 l -1.15796,-4.80242 -1.15796,-4.80241 -0.0988,-0.0883 -0.0988,-0.0883 -2.75222,0.36048 -2.75221,0.36049 -0.0512,0.07 -0.0512,0.07 -1.0033,5.38332 -1.00329,5.38332 2.9947,3.00322 2.9947,3.00322 z m -18.16516,-3.30629 0.0292,-0.006 5.42396,-1.40882 5.42396,-1.40881 0.83722,-4.20715 0.83723,-4.20715 0.17615,-1.23031 0.17615,-1.2303 -5.40914,-2.80459 -5.40914,-2.8046 -0.23444,0.011 -0.23445,0.011 -2.28383,2.83326 -2.28384,2.83327 -1.76593,2.16081 -1.76594,2.16081 3.22683,4.65221 3.22683,4.65221 0.0292,-0.006 z m -9.69424,-9.64868 2.05052,-0.17526 0.92604,-0.97738 0.92604,-0.97738 3.43958,-4.17064 3.43959,-4.17063 0.29445,-1.11545 0.29446,-1.11544 -0.097,-0.11119 -0.097,-0.11118 -4.26963,2.8858 -4.26964,2.8858 -2.344,3.50225 -2.34401,3.50225 v 0.16185 0.16186 z m 23.61406,-4.93483 0.39687,-0.008 2.33548,-0.30798 2.33548,-0.30798 -3.06271,-2.86403 -3.0627,-2.86403 -5.0408,-1.06933 -5.0408,-1.06933 -0.089,0.0969 -0.089,0.0969 -0.17419,1.32292 -0.17418,1.32291 5.63437,2.82916 5.63437,2.82916 0.39688,-0.008 z m 88.59904,27.76382 -0.30868,-0.006 -2.3859,-2.3088 -2.3859,-2.3088 -6.6442,-6.2681 -6.6442,-6.26809 -0.0444,-2.77631 -0.0444,-2.77631 8.54528,-8.68268 8.54528,-8.6826763 0.14641,-0.0709 0.1464,-0.0709 9.04787,8.3574163 9.04787,8.35741 v 1.39806 1.39807 l 0.16599,1.58815 0.166,1.58815 -8.43423,8.52582 -8.43422,8.52581 -0.0882,0.2436 -0.0882,0.24359 -0.30868,-0.006 z m -0.17056,-1.84871 0.13812,0.003 1.37342,-2.71198 1.37343,-2.71198 3.44574,-6.4639 3.44573,-6.4639 -0.0625,-0.0549 -0.0625,-0.0549 -5.10456,-2.55021 -5.10457,-2.5502 -5.08189,2.81158 -5.0819,2.81159 -0.0962,0.0917 -0.0961,0.0917 2.36995,3.9167 2.36995,3.9167 3.01786,4.95801 3.01787,4.95802 0.13812,0.003 z m -2.47543,-1.85679 0.0439,0.008 -4.36877,-7.20989 -4.36877,-7.2099 -0.56996,-0.74396 -0.56996,-0.74396 -2.34608,-1.04198 -2.34608,-1.04197 h -0.13936 -0.13935 l 0.17376,2.18281 0.17377,2.18281 0.72417,0.63582 0.72417,0.63583 5.02708,4.81538 5.02709,4.81539 1.4552,1.35418 1.45521,1.35419 0.0439,0.008 z m 11.66387,-6.89972 6.81302,-6.90094 0.1323,-0.30575 0.13229,-0.30575 -0.13229,-2.16042 -0.1323,-2.16042 -2.38125,1.10413 -2.38125,1.10414 -0.29995,0.19298 -0.29996,0.19299 -4.13181,7.94398 -4.13182,7.94398 v 0.12601 0.12602 z m -20.85332,-9.7695 0.11491,0.008 5.2672,-2.97134 5.26721,-2.97133 -0.15374,-1.59273 -0.15374,-1.59272 -0.0514,-4.47681 -0.0514,-4.4768003 -7.61333,7.7841003 -7.61333,7.78409 -0.011,0.14657 -0.011,0.14656 2.4474,1.10211 2.44739,1.1021 0.11491,0.008 z m 22.31294,-0.70152 0.46743,-0.12258 2.24455,-1.05184 2.24455,-1.05183 v -0.0996 -0.0996 l -7.34219,-6.80893 -7.34219,-6.80893 -0.66145,-0.6059603 -0.66146,-0.60595 0.18797,5.9733603 0.18797,5.97336 0.15672,0.15672 0.15672,0.15672 4.94698,2.55884 4.94697,2.55884 z m -58.25071,16.832894 -9.58288,0.0694 -0.37124,-0.5986 -0.37124,-0.59861 -4.42009,-7.62811 -4.42009,-7.62811 1.39455,-2.42605 1.39454,-2.42606 1.49327,-2.51354 1.49327,-2.51354 1.89342,-3.30729 1.89343,-3.307296 9.59298,0.0734 9.59298,0.0734 0.55087,0.984916 0.55087,0.98491 4.13438,7.17849 4.13437,7.1785 -4.68525,8.16734 -4.68524,8.16734 z m 0.53955,-1.01636 7.6254,0.0209 -1.01082,-1.88283 -1.01082,-1.88282 -0.2858,-0.11262 -0.28579,-0.11261 -6.06421,1.8662 -6.0642,1.86621 -0.26458,0.10834 -0.26459,0.10835 7.62541,0.0209 z m 8.69111,-0.66816 0.18985,-0.11734 1.12164,-2.0442 1.12163,-2.04421 1.70586,-2.91041 1.70586,-2.91042 0.51642,-0.8599 0.51643,-0.85989 h -0.15219 -0.1522 l -2.0522,1.80557 -2.0522,1.80557 -2.38125,2.04288 -2.38125,2.04288 v 0.18644 0.18645 l 1.05187,1.89696 1.05188,1.89695 z m -17.98058,-0.1047 h 0.33692 l 6.54496,-2.03407 6.54496,-2.03407 -0.10983,-0.10982 -0.10982,-0.10982 -8.24649,-4.72257 -8.2465,-4.72256 0.1531,0.5826 0.1531,0.5826 1.21498,5.95312 1.21497,5.95313 0.10637,0.33073 0.10636,0.33073 z m -1.73206,-1.67766 0.0435,-0.0421 -1.25097,-6.0141 -1.25096,-6.01411 -0.14869,-0.14868 -0.14869,-0.14869 -2.15079,0.0774 -2.15079,0.0774 3.50698,6.12756 3.50699,6.12755 z m 16.16804,-8.00992 0.0719,-4.82968 -0.0719,-5.00659 -0.0719,-5.00659 -8.53257,4.92303 -8.53257,4.92303 0.005,0.13229 0.005,0.13229 8.52713,4.78095 8.52713,4.78095 0.0719,-4.82968 z m 1.58173,4.09066 0.72761,-0.66883 4.82151,-4.13329 4.82151,-4.13329 -3.4986,-3.1182 -3.49859,-3.11819 -1.19063,-1.09582 -1.19062,-1.09581 -0.8599,-0.71418 -0.85989,-0.71418 v 9.73031 9.73031 z m -22.56077,-9.48433 h 2.24392 l 0.14299,-0.59532 0.143,-0.59531 1.15516,-5.55625 1.15517,-5.55625 -0.0719,-0.0796 -0.0719,-0.0796 -1.66409,2.99004 -1.66409,2.99004 -1.80611,3.13711 -1.80611,3.1371 v 0.10404 0.10405 z m 4.5374,-1.20311 1.28847,-0.76138 7.254,-4.16851 7.254,-4.16851 -0.37483,-0.11997 -0.37483,-0.11997 -6.565,-2.16514 -6.56501,-2.16515 -0.0897,0.0937 -0.0897,0.0937 -1.36489,6.61458 -1.36489,6.61459 -0.14804,0.50674 -0.14804,0.50674 z m 26.76745,-1.17814 h 0.084 l -0.87522,-1.5262 -0.87521,-1.5262 -2.51355,-4.41936 -2.51354,-4.41936 -0.14208,-0.008 -0.14208,-0.008 -1.04693,1.78594 -1.04694,1.78593 -0.002,0.15711 -0.002,0.1571 4.49542,4.01008 4.49542,4.01009 h 0.084 z m -10.27915,-8.82297 0.38315,-0.0425 1.00073,-1.71881 1.00073,-1.71881 0.005,-0.19844 0.005,-0.19843 -7.2099,0.0233 -7.2099,0.0233 5.82084,1.93652 5.82083,1.93651 0.38316,-0.0425 z m -209.502263,26.86674 -0.41414,-0.004 -7.01146,-4.64217 -7.01146,-4.64217 -0.43254,-0.44752 -0.43255,-0.44752 1.13922,-8.00702 1.13923,-8.00701 0.0965,-0.28936 0.0965,-0.28935 8.6305,-3.23427 8.6305,-3.2342663 7.23512,4.7306263 7.23512,4.73064 0.36903,0.36546 0.36903,0.36547 -1.11068,8.27862 -1.11068,8.27863 -0.0969,0.0969 -0.0969,0.0969 -8.40464,3.15228 -8.40463,3.15229 -0.41415,-0.004 z m -0.52062,-1.548 0.15811,-0.16825 0.99096,-7.23823 0.99096,-7.23822 -0.22303,-0.21999 -0.22302,-0.21999 -6.60774,-4.36669 -6.60774,-4.36668 -0.0957,0.0956 -0.0957,0.0957 -0.99975,7.36363 -0.99975,7.36362 0.2948,0.18564 0.29481,0.18566 6.48229,4.34822 6.48229,4.34823 z m 1.28673,0.23183 0.14266,0.003 7.54063,-2.82674 7.54063,-2.82674 0.22632,-0.19415 0.22632,-0.19415 1.01253,-7.2308 1.01253,-7.23079 -0.10772,-0.10773 -0.10773,-0.10772 -7.70897,2.87057 -7.70898,2.87057 -0.12937,0.33714 -0.12937,0.33715 -0.97607,7.14848 -0.97607,7.14848 0.14266,0.003 z m 1.73016,-15.99732 0.52917,-0.0856 7.47416,-2.84756 7.47416,-2.84756 -5.77263,-3.8631 -5.77263,-3.8631 -1.04445,-0.69048 -1.04446,-0.6904903 -7.27166,2.7641403 -7.27166,2.76415 -0.47384,0.14284 -0.47384,0.14284 0.0774,0.23205 0.0773,0.23204 6.48191,4.34773 6.48191,4.34773 z m 102.830573,22.189669 -0.1456,-0.003 -1.32292,-1.25923 -1.32292,-1.25924 -7.27604,-6.70711 -7.27604,-6.70711 -0.72761,-0.76582 -0.7276,-0.76582 v -3.019332 -3.01933 l 0.71701,-0.564 0.71701,-0.564 4.6408,-4.304261 4.64081,-4.304259 4.10104,-3.6862137 4.10104,-3.686214 0.79375,0.801496 0.79375,0.801496 4.36562,4.0849737 4.36563,4.084975 4.16718,4.016315 4.16719,4.016312 v 2.77817 2.778182 l -0.46302,0.52012 -0.46302,0.52012 -6.48229,5.94662 -6.48229,5.94662 -2.36794,2.16153 -2.36794,2.16153 -0.1456,-0.003 z m -0.54248,-1.85354 0.13229,0.005 -0.0727,-5.88725 -0.0727,-5.88725 -0.0977,-0.26459 -0.0977,-0.26458 -5.39787,-2.76722 -5.39787,-2.767222 -2.76614,1.143412 -2.76613,1.14341 -0.0715,0.0637 -0.0715,0.0637 3.24653,2.99824 3.24653,2.99823 3.43682,3.19205 3.43681,3.19204 1.59027,1.51635 1.59027,1.51635 0.13229,0.005 z m 1.30088,-0.11395 0.24254,-0.1499 8.02568,-7.41334 8.02569,-7.41334 0.0593,-0.19144 0.0593,-0.19143 -2.50012,-1.12448 -2.50013,-1.124482 h -0.27356 -0.27357 l -5.55384,2.779332 -5.55384,2.77933 v 6.09983 6.09982 z m -0.84883,-13.12926 0.31975,0.0188 5.42857,-2.6947 5.42855,-2.694692 -0.72123,-1.22496 -0.72123,-1.22495 -4.75492,-8.016613 -4.75491,-8.0166077 -0.35985,0.493035 -0.35985,0.493035 -5.08306,8.7418157 -5.08305,8.741815 5.17074,2.682652 5.17073,2.68265 0.31976,0.0188 z m -16.3932,-3.69332 1.25678,-0.486252 1.5875,-0.65365 1.5875,-0.65366 0.43498,-0.62061 0.43499,-0.62062 4.39366,-7.472539 4.39366,-7.4725417 v -0.153587 -0.153587 l -3.66611,3.3927947 -3.66611,3.392795 -3.993,3.571875 -3.99301,3.57188 -0.0138,2.42197 -0.0138,2.421982 1.25677,-0.48625 z m 33.99896,0.51376 0.19844,0.0233 v -2.184932 -2.18492 l -4.0349,-3.743286 -4.03489,-3.743287 -3.43958,-3.302326 -3.43959,-3.302325 -0.0702,0.06237 -0.0702,0.06237 3.12766,5.133267 3.12767,5.133268 1.68404,2.820449 1.68404,2.82046 2.53455,1.19111 2.53453,1.191122 0.19844,0.0233 z m -68.55927,16.840774 -0.14316,-0.009 -3.60055,-3.49658 -3.60054,-3.49659 -4.99842,-4.76715 -4.99841,-4.76716 -1.38906,-1.295952 -1.38907,-1.29594 v -0.3265 -0.32649 l 1.45826,-1.33276 1.45826,-1.33277 8.26518,-7.888054 8.26518,-7.8880542 0.0882,-0.198437 0.0882,-0.198438 h 0.34412 0.34412 l 9.4276,9.7170402 9.42761,9.717043 -5.63553,5.694942 -5.63553,5.69493 -3.81665,3.90261 -3.81664,3.9026 -0.14316,-0.009 z m -0.40775,-1.84923 0.26459,5.3e-4 1.79971,-6.25392 1.79972,-6.25392 -0.21222,-0.19578 -0.21221,-0.19579 -5.29167,-0.97055 -5.29167,-0.97055 -2.64583,-0.498682 -2.64583,-0.49869 -2.60357,-0.50694 -2.60357,-0.50695 0.88378,0.87051 0.88377,0.870512 7.80521,7.55494 7.80521,7.55494 0.26458,5.3e-4 z m 9.15414,-8.40454 7.44989,-7.484792 -0.1114,-0.11141 -0.1114,-0.1114 -5.67575,1.677152 -5.67574,1.67716 -1.50877,5.25758 -1.50877,5.25758 -0.15398,0.66146 -0.15397,0.66146 z m -5.91299,-5.63497 0.59531,0.0229 -0.006,-0.33073 -0.006,-0.33073 -1.92092,-10.255984 -1.9209,-10.2559872 -6.73771,6.4108212 -6.73772,6.410821 -2.24351,2.174917 -2.24352,2.17491 0.12685,0.10175 0.12685,0.10176 10.18646,1.87635 10.18646,1.876342 0.59531,0.0229 z m 2.03972,0.0229 h 0.26442 l 6.03254,-1.762582 6.03254,-1.76258 -0.0739,-0.20791 -0.0739,-0.20791 -3.42548,-3.51961 -3.42548,-3.519625 -4.73462,-4.803043 -4.73462,-4.8030422 0.11804,0.451377 0.11804,0.451377 1.81904,9.8417702 1.81904,9.841768 h 0.26441 z"
       id="path853"
       sodipodi:nodetypes="ccccccccccccccccccccccccccccccccccccccccccccccccccccccccccccccccccccccccccccccccccccccccccccccccccccccccccccccccccccccccccccccccccccccccccccccccccccccccccccccccccccccccccccccccccccccccccccccccccccccccccccccccccccccccccccccccccccccccccccccccccccccccccccccccccccccccccccccccccccccccccccccccccccccccccccccccccccccccccccccccccccccccccccccccccccccccccccccccccccccccccccccccccccccccccccccccccccccccccccccccccccccccccccccccccccccccccccccccccccccccccccccccccccccccccccccccccccccccccccccccccccccccccccccccccccccccccccccccccccccccccccccccccccccccccccccccccccccccccccccccccccccccccccccccccccccccccccccccccccccccccccccccccccccccccccccccccccccccccccccccccccccccccccccccccccccccccccccccccccccccccccccccccccccccccccccccccccccccccccccccccccccccccccccccccccccccccccccccccccccccc" />
  </g>
</svg>
