( dmscreen-hinge )
( File created: Saturday March 11 2023 - 01:58 PM)
( for Mach2/3 from Vectric )
( Material Size)
( X= 1200.000, Y= 1200.000, Z= 15.000)
()
(Toolpaths used in this file:)
(dmscreen-hinge)
(Tools used in this file: )
(1 = End Mill {6 mm})
N100G00G21G17G90G40G49G80
N110G71G91.1
N120T1M06
N130 (End Mill {6 mm})
N140G00G43Z20.000H1
N150S16000M03
N160(Toolpath:- dmscreen-hinge)
N170()
N180G94
N190X0.000Y0.000F1920.0
N200G00X81.374Y396.273Z5.000
N210G1Z-0.350F480.0
N220G1X99.414F1920.0
N230G1Y398.673
N240G1X81.374
N250G00Z5.000
N260G00X99.894Y394.531
N270G1Z-0.350F480.0
N280G1Y401.031F1920.0
N290G1X80.894
N300G1Y394.531
N310G1X99.894
N320G00Z5.000
N330G00X81.374Y396.273
N340G1Z-0.700F480.0
N350G1X99.414F1920.0
N360G1Y398.673
N370G1X81.374
N380G00Z5.000
N390G00X99.894Y394.531
N400G1Z-0.700F480.0
N410G1Y401.031F1920.0
N420G1X80.894
N430G1Y394.531
N440G1X99.894
N450G00Z5.000
N460G00X81.374Y396.273
N470G1Z-1.050F480.0
N480G1X99.414F1920.0
N490G1Y398.673
N500G1X81.374
N510G00Z5.000
N520G00X99.894Y394.531
N530G1Z-1.050F480.0
N540G1Y401.031F1920.0
N550G1X80.894
N560G1Y394.531
N570G1X99.894
N580G00Z5.000
N590G00X81.374Y396.273
N600G1Z-1.400F480.0
N610G1X99.414F1920.0
N620G1Y398.673
N630G1X81.374
N640G00Z5.000
N650G00X99.894Y394.531
N660G1Z-1.400F480.0
N670G1Y401.031F1920.0
N680G1X80.894
N690G1Y394.531
N700G1X99.894
N710G00Z5.000
N720G00X81.374Y396.273
N730G1Z-1.750F480.0
N740G1X99.414F1920.0
N750G1Y398.673
N760G1X81.374
N770G00Z5.000
N780G00X99.894Y394.531
N790G1Z-1.750F480.0
N800G1Y401.031F1920.0
N810G1X80.894
N820G1Y394.531
N830G1X99.894
N840G00Z5.000
N850G00X81.374Y396.273
N860G1Z-2.100F480.0
N870G1X99.414F1920.0
N880G1Y398.673
N890G1X81.374
N900G00Z5.000
N910G00X99.894Y394.531
N920G1Z-2.100F480.0
N930G1Y401.031F1920.0
N940G1X80.894
N950G1Y394.531
N960G1X99.894
N970G00Z5.000
N980G00X81.319Y434.886
N990G1Z-0.350F480.0
N1000G1X99.359F1920.0
N1010G1Y437.286
N1020G1X81.319
N1030G00Z5.000
N1040G00X99.839Y433.144
N1050G1Z-0.350F480.0
N1060G1Y439.644F1920.0
N1070G1X80.839
N1080G1Y433.144
N1090G1X99.839
N1100G00Z5.000
N1110G00X81.319Y434.886
N1120G1Z-0.700F480.0
N1130G1X99.359F1920.0
N1140G1Y437.286
N1150G1X81.319
N1160G00Z5.000
N1170G00X99.839Y433.144
N1180G1Z-0.700F480.0
N1190G1Y439.644F1920.0
N1200G1X80.839
N1210G1Y433.144
N1220G1X99.839
N1230G00Z5.000
N1240G00X81.319Y434.886
N1250G1Z-1.050F480.0
N1260G1X99.359F1920.0
N1270G1Y437.286
N1280G1X81.319
N1290G00Z5.000
N1300G00X99.839Y433.144
N1310G1Z-1.050F480.0
N1320G1Y439.644F1920.0
N1330G1X80.839
N1340G1Y433.144
N1350G1X99.839
N1360G00Z5.000
N1370G00X81.319Y434.886
N1380G1Z-1.400F480.0
N1390G1X99.359F1920.0
N1400G1Y437.286
N1410G1X81.319
N1420G00Z5.000
N1430G00X99.839Y433.144
N1440G1Z-1.400F480.0
N1450G1Y439.644F1920.0
N1460G1X80.839
N1470G1Y433.144
N1480G1X99.839
N1490G00Z5.000
N1500G00X81.319Y434.886
N1510G1Z-1.750F480.0
N1520G1X99.359F1920.0
N1530G1Y437.286
N1540G1X81.319
N1550G00Z5.000
N1560G00X99.839Y433.144
N1570G1Z-1.750F480.0
N1580G1Y439.644F1920.0
N1590G1X80.839
N1600G1Y433.144
N1610G1X99.839
N1620G00Z5.000
N1630G00X81.319Y434.886
N1640G1Z-2.100F480.0
N1650G1X99.359F1920.0
N1660G1Y437.286
N1670G1X81.319
N1680G00Z5.000
N1690G00X99.839Y433.144
N1700G1Z-2.100F480.0
N1710G1Y439.644F1920.0
N1720G1X80.839
N1730G1Y433.144
N1740G1X99.839
N1750G00Z5.000
N1760G00X266.319Y434.886
N1770G1Z-0.350F480.0
N1780G1X284.359F1920.0
N1790G1Y437.286
N1800G1X266.319
N1810G00Z5.000
N1820G00X265.839Y433.144
N1830G1Z-0.350F480.0
N1840G1X284.839F1920.0
N1850G1Y439.644
N1860G1X265.839
N1870G1Y433.144
N1880G00Z5.000
N1890G00X266.319Y434.886
N1900G1Z-0.700F480.0
N1910G1X284.359F1920.0
N1920G1Y437.286
N1930G1X266.319
N1940G00Z5.000
N1950G00X265.839Y433.144
N1960G1Z-0.700F480.0
N1970G1X284.839F1920.0
N1980G1Y439.644
N1990G1X265.839
N2000G1Y433.144
N2010G00Z5.000
N2020G00X266.319Y434.886
N2030G1Z-1.050F480.0
N2040G1X284.359F1920.0
N2050G1Y437.286
N2060G1X266.319
N2070G00Z5.000
N2080G00X265.839Y433.144
N2090G1Z-1.050F480.0
N2100G1X284.839F1920.0
N2110G1Y439.644
N2120G1X265.839
N2130G1Y433.144
N2140G00Z5.000
N2150G00X266.319Y434.886
N2160G1Z-1.400F480.0
N2170G1X284.359F1920.0
N2180G1Y437.286
N2190G1X266.319
N2200G00Z5.000
N2210G00X265.839Y433.144
N2220G1Z-1.400F480.0
N2230G1X284.839F1920.0
N2240G1Y439.644
N2250G1X265.839
N2260G1Y433.144
N2270G00Z5.000
N2280G00X266.319Y434.886
N2290G1Z-1.750F480.0
N2300G1X284.359F1920.0
N2310G1Y437.286
N2320G1X266.319
N2330G00Z5.000
N2340G00X265.839Y433.144
N2350G1Z-1.750F480.0
N2360G1X284.839F1920.0
N2370G1Y439.644
N2380G1X265.839
N2390G1Y433.144
N2400G00Z5.000
N2410G00X266.319Y434.886
N2420G1Z-2.100F480.0
N2430G1X284.359F1920.0
N2440G1Y437.286
N2450G1X266.319
N2460G00Z5.000
N2470G00X265.839Y433.144
N2480G1Z-2.100F480.0
N2490G1X284.839F1920.0
N2500G1Y439.644
N2510G1X265.839
N2520G1Y433.144
N2530G00Z5.000
N2540G00X266.374Y396.273
N2550G1Z-0.350F480.0
N2560G1X284.414F1920.0
N2570G1Y398.673
N2580G1X266.374
N2590G00Z5.000
N2600G00X284.894Y401.031
N2610G1Z-0.350F480.0
N2620G1X265.894F1920.0
N2630G1Y394.531
N2640G1X284.894
N2650G1Y401.031
N2660G00Z5.000
N2670G00X266.374Y396.273
N2680G1Z-0.700F480.0
N2690G1X284.414F1920.0
N2700G1Y398.673
N2710G1X266.374
N2720G00Z5.000
N2730G00X284.894Y401.031
N2740G1Z-0.700F480.0
N2750G1X265.894F1920.0
N2760G1Y394.531
N2770G1X284.894
N2780G1Y401.031
N2790G00Z5.000
N2800G00X266.374Y396.273
N2810G1Z-1.050F480.0
N2820G1X284.414F1920.0
N2830G1Y398.673
N2840G1X266.374
N2850G00Z5.000
N2860G00X284.894Y401.031
N2870G1Z-1.050F480.0
N2880G1X265.894F1920.0
N2890G1Y394.531
N2900G1X284.894
N2910G1Y401.031
N2920G00Z5.000
N2930G00X266.374Y396.273
N2940G1Z-1.400F480.0
N2950G1X284.414F1920.0
N2960G1Y398.673
N2970G1X266.374
N2980G00Z5.000
N2990G00X284.894Y401.031
N3000G1Z-1.400F480.0
N3010G1X265.894F1920.0
N3020G1Y394.531
N3030G1X284.894
N3040G1Y401.031
N3050G00Z5.000
N3060G00X266.374Y396.273
N3070G1Z-1.750F480.0
N3080G1X284.414F1920.0
N3090G1Y398.673
N3100G1X266.374
N3110G00Z5.000
N3120G00X284.894Y401.031
N3130G1Z-1.750F480.0
N3140G1X265.894F1920.0
N3150G1Y394.531
N3160G1X284.894
N3170G1Y401.031
N3180G00Z5.000
N3190G00X266.374Y396.273
N3200G1Z-2.100F480.0
N3210G1X284.414F1920.0
N3220G1Y398.673
N3230G1X266.374
N3240G00Z5.000
N3250G00X284.894Y401.031
N3260G1Z-2.100F480.0
N3270G1X265.894F1920.0
N3280G1Y394.531
N3290G1X284.894
N3300G1Y401.031
N3310G00Z5.000
N3320G00Z20.000
N3330G00X0.000Y0.000
N3340M09
N3350M30
%
